\BOOKMARK [1][-]{section.1}{Introduction}{}% 1
\BOOKMARK [1][-]{section.2}{The K\366nigsberg Bridge Problem}{}% 2
\BOOKMARK [2][-]{subsection.2.1}{Introductory Definitions}{section.2}% 3
\BOOKMARK [2][-]{subsection.2.2}{Euler's Abstraction}{section.2}% 4
\BOOKMARK [2][-]{subsection.2.3}{Key Observation: Degree of a Vertex}{section.2}% 5
\BOOKMARK [2][-]{subsection.2.4}{Conclusion to the Problem}{section.2}% 6
\BOOKMARK [1][-]{section.3}{Food webs: an application of graph theory.}{}% 7
\BOOKMARK [2][-]{subsection.3.1}{Introduction}{section.3}% 8
\BOOKMARK [2][-]{subsection.3.2}{Graph theoretic approach}{section.3}% 9
\BOOKMARK [1][-]{section.4}{References}{}% 10
\BOOKMARK [1][-]{section.5}{Figures}{}% 11
